atm-de-master-5_Loops-ComputerArcasulVideoIO/5_Loops/ComputerArcasulVideoIO/ComputerArcasulVideoIO.sim/sim_1/behav/xsim/simulate.log
Time resolution is 1 ps
R[0]=         x, R[1]=         x, R[2]=         x, R[3]=         x, R[4]=         x, R[5]=         x, R[6]=         x, R[7]=         x, addr_bus=00000, data_out=xxxxxxxx

R[ 0] = R[ 0] + R[ 0]
--- Start Teste ALU ---
R[0]=         x, R[1]=         x, R[2]=         x, R[3]=         x, R[4]=         x, R[5]=         x, R[6]=         x, R[7]=         x, addr_bus=0000a, data_out=xxxxxxxx

R[ 1] =     10
R[0]=         x, R[1]=        10, R[2]=         x, R[3]=         x, R[4]=         x, R[5]=         x, R[6]=         x, R[7]=         x, addr_bus=00005, data_out=xxxxxxxx

R[ 2] =      5
R[0]=         x, R[1]=        10, R[2]=         5, R[3]=         x, R[4]=         x, R[5]=         x, R[6]=         x, R[7]=         x, addr_bus=01100, data_out=xxxxxxxx

R[ 3] = R[ 1] + R[ 2]
R[0]=         x, R[1]=        10, R[2]=         5, R[3]=        15, R[4]=         x, R[5]=         x, R[6]=         x, R[7]=         x, addr_bus=01100, data_out=xxxxxxxx

R[ 4] = R[ 1] - R[ 2]
R[0]=         x, R[1]=        10, R[2]=         5, R[3]=        15, R[4]=         5, R[5]=         x, R[6]=         x, R[7]=         x, addr_bus=01100, data_out=xxxxxxxx

R[ 5] = R[ 1] & R[ 2]
R[0]=         x, R[1]=        10, R[2]=         5, R[3]=        15, R[4]=         5, R[5]=         0, R[6]=         x, R[7]=         x, addr_bus=01100, data_out=xxxxxxxx

R[ 6] = R[ 1] | R[ 2]
R[0]=         x, R[1]=        10, R[2]=         5, R[3]=        15, R[4]=         5, R[5]=         0, R[6]=        15, R[7]=         x, addr_bus=01100, data_out=xxxxxxxx

R[ 7] = R[ 1] ^ R[ 2]
R[0]=         x, R[1]=        10, R[2]=         5, R[3]=        15, R[4]=         5, R[5]=         0, R[6]=        15, R[7]=        15, addr_bus=01080, data_out=0000000f

R[ 7] = R[ 1] - R[ 1]
R[0]=         x, R[1]=        10, R[2]=         5, R[3]=        15, R[4]=         5, R[5]=         0, R[6]=        15, R[7]=         0, addr_bus=04321, data_out=00000000

R[ 7] =  17185
R[0]=         x, R[1]=        10, R[2]=         5, R[3]=        15, R[4]=         5, R[5]=         0, R[6]=        15, R[7]=     17185, addr_bus=1fffd, data_out=xxxxxxxx

R[ 0] = 131069
R[0]=    131069, R[1]=        10, R[2]=         5, R[3]=        15, R[4]=         5, R[5]=         0, R[6]=        15, R[7]=     17185, addr_bus=1fffd, data_out=00004321

MEM[R[ 0]] = R[ 7] : MEM[    131069]=     17185
R[0]=    131069, R[1]=        10, R[2]=         5, R[3]=        15, R[4]=         5, R[5]=         0, R[6]=        15, R[7]=     17185, addr_bus=1fffd, data_out=0000000f

R[ 6] = MEM[R[ 0]] = MEM[    131069] =          Z
R[0]=    131069, R[1]=        10, R[2]=         5, R[3]=        15, R[4]=         5, R[5]=         0, R[6]=         Z, R[7]=     17185, addr_bus=1fffd, data_out=zzzz0000

R[ 6] = MEM[R[ 0]] = MEM[    131069] =          Z
$finish called at time : 43 ns : File "D:/Programare/SystemVerilog/atm-de-master-5_Loops-ComputerArcasulVideoIO/5_Loops/ComputerArcasulVideoIO/ComputerArcasulVideoIO.srcs/sources_1/new/tb.sv" Line 88
